F:\Sumit_Project_Works\AndroidAppAutomation\src\main\java\com\AndroidAutomation\Resources\ExtentReporterNG.java
F:\Sumit_Project_Works\AndroidAppAutomation\src\main\java\com\AndroidAutomation\Utilities\HandleScrolling.java
F:\Sumit_Project_Works\AndroidAppAutomation\src\main\java\com\AndroidAutomation\Utilities\GetFilePathByNameHandler.java
F:\Sumit_Project_Works\AndroidAppAutomation\src\main\java\com\AndroidAutomation\Utilities\GetSystemCurrentDateTime.java
F:\Sumit_Project_Works\AndroidAppAutomation\src\main\java\com\AndroidAutomation\Resources\TestCaseListener.java
F:\Sumit_Project_Works\AndroidAppAutomation\src\main\java\com\AndroidAutomation\Utilities\MasterController_BasicConfiguration.java
F:\Sumit_Project_Works\AndroidAppAutomation\src\main\java\com\AndroidAutomation\Utilities\PropertiesFileController.java
